{
  "files": {
    "main.css": "/static/css/main.6dea0f05.chunk.css",
    "main.js": "/static/js/main.f58aa6f4.chunk.js",
    "main.js.map": "/static/js/main.f58aa6f4.chunk.js.map",
    "runtime-main.js": "/static/js/runtime-main.878aa00f.js",
    "runtime-main.js.map": "/static/js/runtime-main.878aa00f.js.map",
    "static/css/2.86a5f087.chunk.css": "/static/css/2.86a5f087.chunk.css",
    "static/js/2.fcfa8b58.chunk.js": "/static/js/2.fcfa8b58.chunk.js",
    "static/js/2.fcfa8b58.chunk.js.map": "/static/js/2.fcfa8b58.chunk.js.map",
    "static/js/3.7157ea8d.chunk.js": "/static/js/3.7157ea8d.chunk.js",
    "static/js/3.7157ea8d.chunk.js.map": "/static/js/3.7157ea8d.chunk.js.map",
    "index.html": "/index.html",
    "static/css/2.86a5f087.chunk.css.map": "/static/css/2.86a5f087.chunk.css.map",
    "static/css/main.6dea0f05.chunk.css.map": "/static/css/main.6dea0f05.chunk.css.map",
    "static/js/2.fcfa8b58.chunk.js.LICENSE.txt": "/static/js/2.fcfa8b58.chunk.js.LICENSE.txt",
    "static/media/index.css": "/static/media/roboto-vietnamese-400-normal.52cebac0.woff2"
  },
  "entrypoints": [
    "static/js/runtime-main.878aa00f.js",
    "static/css/2.86a5f087.chunk.css",
    "static/js/2.fcfa8b58.chunk.js",
    "static/css/main.6dea0f05.chunk.css",
    "static/js/main.f58aa6f4.chunk.js"
  ]
}